{
  "models": [
    {
      "id": "1",
      "name": "3D Model Leg",
      "link": "https://s3.amazonaws.com/incision-platform/WebGL/LowerExtremities/Leg/index.html",
      "imageSrc": "https://www.incision.care/wp-content/uploads/2018/12/Leg-2.png"
    },
    {
      "id": "2",
      "name": "3D Model Male Genitals",
      "link": "https://s3.amazonaws.com/incision-platform/WebGL/Abdomen/Male_Genitals/index.html",
      "imageSrc": "https://www.incision.care/wp-content/uploads/2018/11/Male-Genitalia-small.png"
    },
    {
      "id": "3",
      "name": "3D Model Visceral Organs",
      "link": "https://s3.amazonaws.com/incision-platform/WebGL/Abdomen/Visceral_Organs/index.html",
      "imageSrc": "https://www.incision.care/wp-content/uploads/2018/10/Visceral-Organs-small.png"
    },
    {
      "id": "4",
      "name": "3D Model Hip",
      "link": "https://s3.amazonaws.com/incision-platform/WebGL/LowerExtremities/Hip/index.html",
      "imageSrc": "https://www.incision.care/wp-content/uploads/2018/12/Hip-2.png"
    },
    {
      "id": "5",
      "name": "3D Model Female Genitals",
      "link": "https://s3.amazonaws.com/incision-platform/WebGL/Abdomen/Female_Genitals/index.html",
      "imageSrc": "https://www.incision.care/wp-content/uploads/2018/11/Female-Genitalia-small.png"
    },
    {
      "id": "6",
      "name": "3D Model Female Pelvic Floor",
      "link": "https://s3.amazonaws.com/incision-platform/WebGL/Abdomen/Female_Pelvic_Floor/index.html",
      "imageSrc": "https://www.incision.care/wp-content/uploads/2018/11/Pelvic-Floor-Female-small.png"
    },
    {
      "id": "7",
      "name": "3D Model Abdomen Aorta",
      "link": "https://s3.amazonaws.com/incision-platform/WebGL/Abdomen/Abdomen_Aorta/index.html",
      "imageSrc": "https://www.incision.care/wp-content/uploads/2018/11/Abdominal-Aorta-small.png"
    },
    {
      "id": "8",
      "name": "3D Model Male Pelvis",
      "link": "https://s3.amazonaws.com/incision-platform/WebGL/Abdomen/Male_Pelvis/index.html",
      "imageSrc": "https://www.incision.care/wp-content/uploads/2018/12/Male-pelvis-2.png"
    },
    {
      "id": "9",
      "name": "3D Model Abdominal Wall",
      "link": "https://s3.amazonaws.com/incision-platform/WebGL/Abdomen/Abdomen_Wall/index.html",
      "imageSrc": "https://www.incision.care/wp-content/uploads/2018/12/Abdominal-Wall-2.png"
    },
    {
      "id": "10",
      "name": "3D Model Shoulder",
      "link": "https://s3.amazonaws.com/incision-platform/WebGL/UpperExtremities/Shoulder/index.html",
      "imageSrc": "https://www.incision.care/wp-content/uploads/2018/12/Shoulder-2.png"
    },
    {
      "id": "11",
      "name": "3d model Arm",
      "link": "https://s3.amazonaws.com/incision-platform/WebGL/UpperExtremities/Arm/index.html",
      "imageSrc": "https://www.incision.care/wp-content/uploads/2018/11/Arm-small.png"
    },
    {
      "id": "12",
      "name": "3D Model Foot",
      "link": "https://s3.amazonaws.com/incision-platform/WebGL/LowerExtremities/Ankle/index.html",
      "imageSrc": "https://www.incision.care/wp-content/uploads/2018/12/Foot-2.png"
    },
    {
      "id": "13",
      "name": "3D Model Female Pelvis",
      "link": "https://s3.amazonaws.com/incision-platform/WebGL/Abdomen/Female_Pelvis/index.html",
      "imageSrc": "https://www.incision.care/wp-content/uploads/2018/12/Female-pelvis-2.png"
    },
    {
      "id": "14",
      "name": "3D model Inguinal Area",
      "link": "https://s3.amazonaws.com/incision-platform/WebGL/Abdomen/Inguinal_Region/index.html",
      "imageSrc": "https://www.incision.care/wp-content/uploads/2018/12/Inguinal-Area-2.png"
    },
    {
      "id": "15",
      "name": "3D model Elbow",
      "link": "https://s3.amazonaws.com/incision-platform/WebGL/UpperExtremities/Elbow/index.html",
      "imageSrc": "https://www.incision.care/wp-content/uploads/2018/11/Elbow-small.png"
    },
    {
      "id": "16",
      "name": "3D model Wrist/Hand",
      "link": "https://s3.amazonaws.com/incision-platform/WebGL/UpperExtremities/WristHand/index.html",
      "imageSrc": "https://www.incision.care/wp-content/uploads/2018/12/WristHand-2.png"
    },
    {
      "id": "17",
      "name": "3D model Knee",
      "link": "https://s3.amazonaws.com/incision-platform/WebGL/LowerExtremities/Knee/index.html",
      "imageSrc": "https://www.incision.care/wp-content/uploads/2018/11/Knee-small.png"
    },
    {
      "id": "18",
      "name": "3D model Leg and Ankle",
      "link": "https://s3.amazonaws.com/incision-platform/WebGL/LowerExtremities/Leg/index.html",
      "imageSrc": "https://www.incision.care/wp-content/uploads/2018/11/Leg-Ankle-small.png"
    },
    {
      "id": "19",
      "name": "3D model Thigh",
      "link": "https://s3.amazonaws.com/incision-platform/WebGL/LowerExtremities/Thigh/index.html",
      "imageSrc": "https://www.incision.care/wp-content/uploads/2018/11/Thigh-small.png"
    },
    {
      "id": "20",
      "name": "3D model Leg",
      "link": "https://s3.amazonaws.com/incision-platform/WebGL/LowerExtremities/Leg/index.html",
      "imageSrc": "https://www.incision.care/wp-content/uploads/2018/12/Leg-2.png"
    },
    {
      "id": "21",
      "name": "3D model Forearm",
      "link": "https://s3.amazonaws.com/incision-platform/WebGL/UpperExtremities/Forearm/index.html",
      "imageSrc": "https://www.incision.care/wp-content/uploads/2018/11/Forearm-small.png"
    },
    {
      "id": "22",
      "name": "3D model Ankle",
      "link": "https://s3.amazonaws.com/incision-platform/WebGL/LowerExtremities/Ankle/index.html",
      "imageSrc": "https://www.incision.care/wp-content/uploads/2018/11/Ankle-small.png"
    }
  ],
  "parts": [
    {
      "id": "1",
      "name": "Leg",
      "courses": [],
      "models": [
        {
          "name": "3D Model Leg",
          "link": "https://s3.amazonaws.com/incision-platform/WebGL/LowerExtremities/Leg/index.html"
        }
      ],
      "images": [
        {
          "name": "",
          "link": "https://www.incision.care/wp-content/uploads/2018/03/09.Ankle_.Anterior.Superficial.Titles2-1024x577.png"
        },
        {
          "name": "Ankle – Anterior View – Superficial Anatomy",
          "link": "https://www.incision.care/wp-content/uploads/2017/12/Lateral-View-of-Right-Foot-Titles-V4.png"
        }
      ],
      "structure": {
        "bones": [],
        "joints": [],
        "muscles": [],
        "bloodVessels": [],
        "nerves": []
      }
    }
  ]
}
